-- Merging decision tree log ---
provider#org.apache.cordova.camera.FileProvider
INJECTED from /home/pizone/mydays/platforms/android/app/src/main/AndroidManifest.xml:12:9-14:20
	android:grantUriPermissions
		ADDED from /home/pizone/mydays/platforms/android/app/src/main/AndroidManifest.xml:12:92-126
	android:authorities
		INJECTED from /home/pizone/mydays/platforms/android/app/src/main/AndroidManifest.xml
		ADDED from /home/pizone/mydays/platforms/android/app/src/main/AndroidManifest.xml:12:19-66
	android:exported
		ADDED from /home/pizone/mydays/platforms/android/app/src/main/AndroidManifest.xml:12:67-91
	android:name
		ADDED from /home/pizone/mydays/platforms/android/app/src/main/AndroidManifest.xml:12:127-180
manifest
ADDED from /home/pizone/mydays/platforms/android/app/src/main/AndroidManifest.xml:2:1-21:12
INJECTED from /home/pizone/mydays/platforms/android/app/src/main/AndroidManifest.xml:2:1-21:12
INJECTED from /home/pizone/mydays/platforms/android/app/src/main/AndroidManifest.xml:2:1-21:12
INJECTED from /home/pizone/mydays/platforms/android/app/src/main/AndroidManifest.xml:2:1-21:12
MERGED from [com.commit451:PhotoView:1.2.4] /home/pizone/.gradle/caches/transforms-1/files-1.1/PhotoView-1.2.4.aar/1247790c2fe3bcce63976cfc5a9144ca/AndroidManifest.xml:2:1-12:12
MERGED from [com.squareup.picasso:picasso:2.71828] /home/pizone/.gradle/caches/transforms-1/files-1.1/picasso-2.71828.aar/eddba8e44f7669d56fe87e8dd1a1daec/AndroidManifest.xml:2:1-14:12
MERGED from [com.android.support:exifinterface:27.1.0] /home/pizone/.gradle/caches/transforms-1/files-1.1/exifinterface-27.1.0.aar/67a55446ea3f1663aef13672d79e9b1e/AndroidManifest.xml:17:1-22:12
MERGED from [com.android.support:support-v4:27.1.1] /home/pizone/.gradle/caches/transforms-1/files-1.1/support-v4-27.1.1.aar/d4bc320f0716ddb2a242d249bd4da48e/AndroidManifest.xml:17:1-22:12
MERGED from [com.android.support:support-media-compat:27.1.1] /home/pizone/.gradle/caches/transforms-1/files-1.1/support-media-compat-27.1.1.aar/edf3c9dbc058cc16f821fb8db087e660/AndroidManifest.xml:17:1-22:12
MERGED from [com.android.support:support-fragment:27.1.1] /home/pizone/.gradle/caches/transforms-1/files-1.1/support-fragment-27.1.1.aar/87118bd490fd4fe1832cee0f366ae431/AndroidManifest.xml:17:1-22:12
MERGED from [com.android.support:support-core-ui:27.1.1] /home/pizone/.gradle/caches/transforms-1/files-1.1/support-core-ui-27.1.1.aar/00a5780de4bed298cfabd0ad16dfc64f/AndroidManifest.xml:17:1-22:12
MERGED from [com.android.support:support-core-utils:27.1.1] /home/pizone/.gradle/caches/transforms-1/files-1.1/support-core-utils-27.1.1.aar/bb0f72f2c76d22908b17a12ce646a378/AndroidManifest.xml:17:1-22:12
MERGED from [com.android.support:support-compat:27.1.1] /home/pizone/.gradle/caches/transforms-1/files-1.1/support-compat-27.1.1.aar/1db0f40e8b3586bd92c271cf7073254e/AndroidManifest.xml:17:1-22:12
MERGED from [com.soundcloud.android:android-crop:1.0.0] /home/pizone/.gradle/caches/transforms-1/files-1.1/android-crop-1.0.0.aar/fc7ede5711a0793d511c9e66727ff27b/AndroidManifest.xml:2:1-10:12
MERGED from [:CordovaLib] /home/pizone/mydays/platforms/android/CordovaLib/build/intermediates/manifests/full/debug/AndroidManifest.xml:20:1-27:12
MERGED from [android.arch.lifecycle:runtime:1.1.0] /home/pizone/.gradle/caches/transforms-1/files-1.1/runtime-1.1.0.aar/3a120718d93b5aecda5cdf6fc8e5e71e/AndroidManifest.xml:17:1-22:12
MERGED from [android.arch.lifecycle:livedata-core:1.1.0] /home/pizone/.gradle/caches/transforms-1/files-1.1/livedata-core-1.1.0.aar/2b603c5d3e297b2e18d99359f65211c3/AndroidManifest.xml:17:1-22:12
MERGED from [android.arch.lifecycle:viewmodel:1.1.0] /home/pizone/.gradle/caches/transforms-1/files-1.1/viewmodel-1.1.0.aar/833ebca14a41dac86192a5d5f861ea21/AndroidManifest.xml:17:1-22:12
MERGED from [android.arch.core:runtime:1.1.0] /home/pizone/.gradle/caches/transforms-1/files-1.1/runtime-1.1.0.aar/04bdbcdc8345e4c5ea3e2123baeb9577/AndroidManifest.xml:17:1-22:12
INJECTED from /home/pizone/mydays/platforms/android/app/src/main/AndroidManifest.xml:2:1-21:12
INJECTED from /home/pizone/mydays/platforms/android/app/src/main/AndroidManifest.xml:2:1-21:12
INJECTED from /home/pizone/mydays/platforms/android/app/src/main/AndroidManifest.xml:2:1-21:12
	package
		ADDED from /home/pizone/mydays/platforms/android/app/src/main/AndroidManifest.xml:2:98-124
		INJECTED from /home/pizone/mydays/platforms/android/app/src/main/AndroidManifest.xml
		INJECTED from /home/pizone/mydays/platforms/android/app/src/main/AndroidManifest.xml
	android:versionName
		ADDED from /home/pizone/mydays/platforms/android/app/src/main/AndroidManifest.xml:2:70-97
		INJECTED from /home/pizone/mydays/platforms/android/app/src/main/AndroidManifest.xml
		INJECTED from /home/pizone/mydays/platforms/android/app/src/main/AndroidManifest.xml
	android:hardwareAccelerated
		ADDED from /home/pizone/mydays/platforms/android/app/src/main/AndroidManifest.xml:2:11-45
	xmlns:android
		ADDED from /home/pizone/mydays/platforms/android/app/src/main/AndroidManifest.xml:2:125-183
	android:versionCode
		ADDED from /home/pizone/mydays/platforms/android/app/src/main/AndroidManifest.xml:2:46-69
		INJECTED from /home/pizone/mydays/platforms/android/app/src/main/AndroidManifest.xml
		INJECTED from /home/pizone/mydays/platforms/android/app/src/main/AndroidManifest.xml
supports-screens
ADDED from /home/pizone/mydays/platforms/android/app/src/main/AndroidManifest.xml:3:5-191
	android:largeScreens
		ADDED from /home/pizone/mydays/platforms/android/app/src/main/AndroidManifest.xml:3:49-76
	android:smallScreens
		ADDED from /home/pizone/mydays/platforms/android/app/src/main/AndroidManifest.xml:3:132-159
	android:normalScreens
		ADDED from /home/pizone/mydays/platforms/android/app/src/main/AndroidManifest.xml:3:77-105
	android:xlargeScreens
		ADDED from /home/pizone/mydays/platforms/android/app/src/main/AndroidManifest.xml:3:160-188
	android:resizeable
		ADDED from /home/pizone/mydays/platforms/android/app/src/main/AndroidManifest.xml:3:106-131
	android:anyDensity
		ADDED from /home/pizone/mydays/platforms/android/app/src/main/AndroidManifest.xml:3:23-48
uses-permission#android.permission.INTERNET
ADDED from /home/pizone/mydays/platforms/android/app/src/main/AndroidManifest.xml:4:5-67
	android:name
		ADDED from /home/pizone/mydays/platforms/android/app/src/main/AndroidManifest.xml:4:22-64
application
ADDED from /home/pizone/mydays/platforms/android/app/src/main/AndroidManifest.xml:5:5-17:19
MERGED from [com.squareup.picasso:picasso:2.71828] /home/pizone/.gradle/caches/transforms-1/files-1.1/picasso-2.71828.aar/eddba8e44f7669d56fe87e8dd1a1daec/AndroidManifest.xml:7:5-12:19
MERGED from [com.squareup.picasso:picasso:2.71828] /home/pizone/.gradle/caches/transforms-1/files-1.1/picasso-2.71828.aar/eddba8e44f7669d56fe87e8dd1a1daec/AndroidManifest.xml:7:5-12:19
	android:supportsRtl
		ADDED from /home/pizone/mydays/platforms/android/app/src/main/AndroidManifest.xml:5:175-201
	android:label
		ADDED from /home/pizone/mydays/platforms/android/app/src/main/AndroidManifest.xml:5:81-113
	android:hardwareAccelerated
		ADDED from /home/pizone/mydays/platforms/android/app/src/main/AndroidManifest.xml:5:18-52
	android:icon
		ADDED from /home/pizone/mydays/platforms/android/app/src/main/AndroidManifest.xml:5:53-80
	android:networkSecurityConfig
		ADDED from /home/pizone/mydays/platforms/android/app/src/main/AndroidManifest.xml:5:114-174
activity#io.ionic.starter.MainActivity
ADDED from /home/pizone/mydays/platforms/android/app/src/main/AndroidManifest.xml:6:9-11:20
	android:label
		ADDED from /home/pizone/mydays/platforms/android/app/src/main/AndroidManifest.xml:6:97-134
	android:launchMode
		ADDED from /home/pizone/mydays/platforms/android/app/src/main/AndroidManifest.xml:6:135-165
	android:windowSoftInputMode
		ADDED from /home/pizone/mydays/platforms/android/app/src/main/AndroidManifest.xml:6:257-299
	android:configChanges
		ADDED from /home/pizone/mydays/platforms/android/app/src/main/AndroidManifest.xml:6:19-96
	android:theme
		ADDED from /home/pizone/mydays/platforms/android/app/src/main/AndroidManifest.xml:6:194-256
	android:name
		ADDED from /home/pizone/mydays/platforms/android/app/src/main/AndroidManifest.xml:6:166-193
intent-filter#android.intent.action.MAIN+android.intent.category.LAUNCHER
ADDED from /home/pizone/mydays/platforms/android/app/src/main/AndroidManifest.xml:7:13-10:29
	android:label
		ADDED from /home/pizone/mydays/platforms/android/app/src/main/AndroidManifest.xml:7:28-65
action#android.intent.action.MAIN
ADDED from /home/pizone/mydays/platforms/android/app/src/main/AndroidManifest.xml:8:17-69
	android:name
		ADDED from /home/pizone/mydays/platforms/android/app/src/main/AndroidManifest.xml:8:25-66
category#android.intent.category.LAUNCHER
ADDED from /home/pizone/mydays/platforms/android/app/src/main/AndroidManifest.xml:9:17-77
	android:name
		ADDED from /home/pizone/mydays/platforms/android/app/src/main/AndroidManifest.xml:9:27-74
activity#com.soundcloud.android.crop.CropImageActivity
ADDED from /home/pizone/mydays/platforms/android/app/src/main/AndroidManifest.xml:15:9-82
	android:name
		ADDED from /home/pizone/mydays/platforms/android/app/src/main/AndroidManifest.xml:15:19-79
activity#com.sarriaroman.PhotoViewer.PhotoActivity
ADDED from /home/pizone/mydays/platforms/android/app/src/main/AndroidManifest.xml:16:9-143
	android:theme
		ADDED from /home/pizone/mydays/platforms/android/app/src/main/AndroidManifest.xml:16:76-140
	android:name
		ADDED from /home/pizone/mydays/platforms/android/app/src/main/AndroidManifest.xml:16:19-75
uses-sdk
ADDED from /home/pizone/mydays/platforms/android/app/src/main/AndroidManifest.xml:18:5-74
INJECTED from /home/pizone/mydays/platforms/android/app/src/main/AndroidManifest.xml:18:5-74
MERGED from [com.commit451:PhotoView:1.2.4] /home/pizone/.gradle/caches/transforms-1/files-1.1/PhotoView-1.2.4.aar/1247790c2fe3bcce63976cfc5a9144ca/AndroidManifest.xml:8:5-10:41
MERGED from [com.commit451:PhotoView:1.2.4] /home/pizone/.gradle/caches/transforms-1/files-1.1/PhotoView-1.2.4.aar/1247790c2fe3bcce63976cfc5a9144ca/AndroidManifest.xml:8:5-10:41
MERGED from [com.squareup.picasso:picasso:2.71828] /home/pizone/.gradle/caches/transforms-1/files-1.1/picasso-2.71828.aar/eddba8e44f7669d56fe87e8dd1a1daec/AndroidManifest.xml:5:5-44
MERGED from [com.squareup.picasso:picasso:2.71828] /home/pizone/.gradle/caches/transforms-1/files-1.1/picasso-2.71828.aar/eddba8e44f7669d56fe87e8dd1a1daec/AndroidManifest.xml:5:5-44
MERGED from [com.android.support:exifinterface:27.1.0] /home/pizone/.gradle/caches/transforms-1/files-1.1/exifinterface-27.1.0.aar/67a55446ea3f1663aef13672d79e9b1e/AndroidManifest.xml:20:5-44
MERGED from [com.android.support:exifinterface:27.1.0] /home/pizone/.gradle/caches/transforms-1/files-1.1/exifinterface-27.1.0.aar/67a55446ea3f1663aef13672d79e9b1e/AndroidManifest.xml:20:5-44
MERGED from [com.android.support:support-v4:27.1.1] /home/pizone/.gradle/caches/transforms-1/files-1.1/support-v4-27.1.1.aar/d4bc320f0716ddb2a242d249bd4da48e/AndroidManifest.xml:20:5-44
MERGED from [com.android.support:support-v4:27.1.1] /home/pizone/.gradle/caches/transforms-1/files-1.1/support-v4-27.1.1.aar/d4bc320f0716ddb2a242d249bd4da48e/AndroidManifest.xml:20:5-44
MERGED from [com.android.support:support-media-compat:27.1.1] /home/pizone/.gradle/caches/transforms-1/files-1.1/support-media-compat-27.1.1.aar/edf3c9dbc058cc16f821fb8db087e660/AndroidManifest.xml:20:5-44
MERGED from [com.android.support:support-media-compat:27.1.1] /home/pizone/.gradle/caches/transforms-1/files-1.1/support-media-compat-27.1.1.aar/edf3c9dbc058cc16f821fb8db087e660/AndroidManifest.xml:20:5-44
MERGED from [com.android.support:support-fragment:27.1.1] /home/pizone/.gradle/caches/transforms-1/files-1.1/support-fragment-27.1.1.aar/87118bd490fd4fe1832cee0f366ae431/AndroidManifest.xml:20:5-44
MERGED from [com.android.support:support-fragment:27.1.1] /home/pizone/.gradle/caches/transforms-1/files-1.1/support-fragment-27.1.1.aar/87118bd490fd4fe1832cee0f366ae431/AndroidManifest.xml:20:5-44
MERGED from [com.android.support:support-core-ui:27.1.1] /home/pizone/.gradle/caches/transforms-1/files-1.1/support-core-ui-27.1.1.aar/00a5780de4bed298cfabd0ad16dfc64f/AndroidManifest.xml:20:5-44
MERGED from [com.android.support:support-core-ui:27.1.1] /home/pizone/.gradle/caches/transforms-1/files-1.1/support-core-ui-27.1.1.aar/00a5780de4bed298cfabd0ad16dfc64f/AndroidManifest.xml:20:5-44
MERGED from [com.android.support:support-core-utils:27.1.1] /home/pizone/.gradle/caches/transforms-1/files-1.1/support-core-utils-27.1.1.aar/bb0f72f2c76d22908b17a12ce646a378/AndroidManifest.xml:20:5-44
MERGED from [com.android.support:support-core-utils:27.1.1] /home/pizone/.gradle/caches/transforms-1/files-1.1/support-core-utils-27.1.1.aar/bb0f72f2c76d22908b17a12ce646a378/AndroidManifest.xml:20:5-44
MERGED from [com.android.support:support-compat:27.1.1] /home/pizone/.gradle/caches/transforms-1/files-1.1/support-compat-27.1.1.aar/1db0f40e8b3586bd92c271cf7073254e/AndroidManifest.xml:20:5-44
MERGED from [com.android.support:support-compat:27.1.1] /home/pizone/.gradle/caches/transforms-1/files-1.1/support-compat-27.1.1.aar/1db0f40e8b3586bd92c271cf7073254e/AndroidManifest.xml:20:5-44
MERGED from [com.soundcloud.android:android-crop:1.0.0] /home/pizone/.gradle/caches/transforms-1/files-1.1/android-crop-1.0.0.aar/fc7ede5711a0793d511c9e66727ff27b/AndroidManifest.xml:6:5-8:41
MERGED from [com.soundcloud.android:android-crop:1.0.0] /home/pizone/.gradle/caches/transforms-1/files-1.1/android-crop-1.0.0.aar/fc7ede5711a0793d511c9e66727ff27b/AndroidManifest.xml:6:5-8:41
MERGED from [:CordovaLib] /home/pizone/mydays/platforms/android/CordovaLib/build/intermediates/manifests/full/debug/AndroidManifest.xml:25:5-44
MERGED from [:CordovaLib] /home/pizone/mydays/platforms/android/CordovaLib/build/intermediates/manifests/full/debug/AndroidManifest.xml:25:5-44
MERGED from [android.arch.lifecycle:runtime:1.1.0] /home/pizone/.gradle/caches/transforms-1/files-1.1/runtime-1.1.0.aar/3a120718d93b5aecda5cdf6fc8e5e71e/AndroidManifest.xml:20:5-44
MERGED from [android.arch.lifecycle:runtime:1.1.0] /home/pizone/.gradle/caches/transforms-1/files-1.1/runtime-1.1.0.aar/3a120718d93b5aecda5cdf6fc8e5e71e/AndroidManifest.xml:20:5-44
MERGED from [android.arch.lifecycle:livedata-core:1.1.0] /home/pizone/.gradle/caches/transforms-1/files-1.1/livedata-core-1.1.0.aar/2b603c5d3e297b2e18d99359f65211c3/AndroidManifest.xml:20:5-44
MERGED from [android.arch.lifecycle:livedata-core:1.1.0] /home/pizone/.gradle/caches/transforms-1/files-1.1/livedata-core-1.1.0.aar/2b603c5d3e297b2e18d99359f65211c3/AndroidManifest.xml:20:5-44
MERGED from [android.arch.lifecycle:viewmodel:1.1.0] /home/pizone/.gradle/caches/transforms-1/files-1.1/viewmodel-1.1.0.aar/833ebca14a41dac86192a5d5f861ea21/AndroidManifest.xml:20:5-44
MERGED from [android.arch.lifecycle:viewmodel:1.1.0] /home/pizone/.gradle/caches/transforms-1/files-1.1/viewmodel-1.1.0.aar/833ebca14a41dac86192a5d5f861ea21/AndroidManifest.xml:20:5-44
MERGED from [android.arch.core:runtime:1.1.0] /home/pizone/.gradle/caches/transforms-1/files-1.1/runtime-1.1.0.aar/04bdbcdc8345e4c5ea3e2123baeb9577/AndroidManifest.xml:20:5-44
MERGED from [android.arch.core:runtime:1.1.0] /home/pizone/.gradle/caches/transforms-1/files-1.1/runtime-1.1.0.aar/04bdbcdc8345e4c5ea3e2123baeb9577/AndroidManifest.xml:20:5-44
INJECTED from /home/pizone/mydays/platforms/android/app/src/main/AndroidManifest.xml:18:5-74
	android:targetSdkVersion
		ADDED from /home/pizone/mydays/platforms/android/app/src/main/AndroidManifest.xml:18:42-71
	android:minSdkVersion
		ADDED from /home/pizone/mydays/platforms/android/app/src/main/AndroidManifest.xml:18:15-41
		INJECTED from /home/pizone/mydays/platforms/android/app/src/main/AndroidManifest.xml
		INJECTED from /home/pizone/mydays/platforms/android/app/src/main/AndroidManifest.xml
uses-permission#android.permission.WRITE_EXTERNAL_STORAGE
ADDED from /home/pizone/mydays/platforms/android/app/src/main/AndroidManifest.xml:19:5-81
	android:name
		ADDED from /home/pizone/mydays/platforms/android/app/src/main/AndroidManifest.xml:19:22-78
uses-permission#android.permission.READ_EXTERNAL_STORAGE
ADDED from /home/pizone/mydays/platforms/android/app/src/main/AndroidManifest.xml:20:5-80
	android:name
		ADDED from /home/pizone/mydays/platforms/android/app/src/main/AndroidManifest.xml:20:22-77
meta-data#android.support.FILE_PROVIDER_PATHS
ADDED from /home/pizone/mydays/platforms/android/app/src/main/AndroidManifest.xml:13:13-123
	android:resource
		ADDED from /home/pizone/mydays/platforms/android/app/src/main/AndroidManifest.xml:13:75-120
	android:name
		ADDED from /home/pizone/mydays/platforms/android/app/src/main/AndroidManifest.xml:13:24-74
provider#com.squareup.picasso.PicassoProvider
ADDED from [com.squareup.picasso:picasso:2.71828] /home/pizone/.gradle/caches/transforms-1/files-1.1/picasso-2.71828.aar/eddba8e44f7669d56fe87e8dd1a1daec/AndroidManifest.xml:8:9-11:40
	android:authorities
		ADDED from [com.squareup.picasso:picasso:2.71828] /home/pizone/.gradle/caches/transforms-1/files-1.1/picasso-2.71828.aar/eddba8e44f7669d56fe87e8dd1a1daec/AndroidManifest.xml:10:13-72
	android:exported
		ADDED from [com.squareup.picasso:picasso:2.71828] /home/pizone/.gradle/caches/transforms-1/files-1.1/picasso-2.71828.aar/eddba8e44f7669d56fe87e8dd1a1daec/AndroidManifest.xml:11:13-37
	android:name
		ADDED from [com.squareup.picasso:picasso:2.71828] /home/pizone/.gradle/caches/transforms-1/files-1.1/picasso-2.71828.aar/eddba8e44f7669d56fe87e8dd1a1daec/AndroidManifest.xml:9:13-64
